<?xml version="1.0" standalone="no"?>
<!DOCTYPE svg PUBLIC "-//W3C//DTD SVG 20010904//EN"
 "http://www.w3.org/TR/2001/REC-SVG-20010904/DTD/svg10.dtd">
<svg version="1.0" xmlns="http://www.w3.org/2000/svg"
 width="400.000000pt" height="400.000000pt" viewBox="0 0 400.000000 400.000000"
 preserveAspectRatio="xMidYMid meet">
<metadata>
Created by potrace 1.11, written by Peter Selinger 2001-2013
</metadata>
<g transform="translate(0.000000,400.000000) scale(0.100000,-0.100000)"
fill="#000000" stroke="none">
<path d="M1975 3802 c-5 -4 -26 -38 -45 -77 -48 -97 -101 -185 -112 -185 -4 0
-8 -6 -8 -12 -1 -7 -20 -40 -43 -73 -41 -57 -44 -59 -90 -62 -26 -1 -60 -9
-76 -18 -60 -31 -92 -112 -65 -166 12 -24 10 -29 -40 -80 -92 -93 -186 -172
-283 -238 -36 -24 -63 -49 -63 -59 0 -23 71 -83 152 -129 96 -54 98 -50 -108
-211 -61 -48 -122 -94 -134 -102 -13 -8 -35 -24 -49 -36 -14 -11 -48 -34 -76
-52 -64 -41 -105 -72 -105 -81 0 -4 17 -25 38 -47 41 -44 104 -90 171 -123
l43 -23 -38 -26 c-69 -47 -226 -149 -351 -227 -70 -44 -123 -83 -123 -92 0 -8
15 -43 32 -76 40 -74 149 -187 238 -246 47 -31 66 -49 67 -67 2 -30 30 -68 66
-89 32 -19 115 -22 147 -5 16 9 32 8 69 -5 26 -8 56 -17 67 -20 10 -2 53 -13
94 -24 71 -19 111 -26 190 -37 19 -2 42 -6 50 -9 13 -3 53 -7 195 -20 17 -2
33 -3 38 -4 4 0 7 -12 7 -25 0 -22 -6 -26 -47 -31 -27 -4 -57 -8 -69 -10 -11
-2 -65 -15 -119 -29 -228 -61 -350 -164 -349 -295 1 -132 6 -152 43 -188 106
-103 317 -191 526 -218 82 -11 396 -15 455 -5 30 5 75 11 99 14 123 16 315 86
388 142 62 47 81 89 88 190 8 111 -9 160 -77 224 -73 71 -264 147 -410 166
-66 8 -78 17 -69 51 6 23 13 27 50 30 24 1 68 7 97 12 36 7 63 7 81 0 69 -26
137 -15 180 31 19 20 58 39 123 60 201 67 356 155 462 262 67 68 124 154 134
204 6 29 4 31 -43 49 -68 25 -230 107 -310 156 -38 23 -77 47 -88 53 -45 25
-105 69 -105 76 0 5 21 18 46 30 132 65 275 230 197 230 -18 0 -136 59 -214
106 l-56 33 4 53 c5 64 -17 106 -68 130 -36 18 -112 17 -134 -2 -11 -9 -21 -7
-45 10 -17 12 -28 25 -25 29 2 5 26 16 52 26 94 35 255 158 239 183 -3 5 -43
28 -88 51 -112 56 -197 122 -311 241 -92 97 -237 279 -237 299 0 5 29 26 65
47 76 46 88 77 28 69 -21 -2 -68 -7 -104 -10 l-67 -7 -10 34 c-5 18 -15 56
-22 83 -20 83 -21 85 -32 85 -6 0 -16 -7 -22 -16 -10 -13 -16 -5 -41 45 -29
62 -33 66 -50 53z"/>
</g>
</svg>
